:BASE masprod.hlp>main
:TITLE Mats Asplund / MAs Prod.
:INCLUDE DELPHI3.CFG
1 Mats Asplund / MAs Prod. - Egna komponenter
2 TADlg component
3 TADlg component - Reference=Scribble1010
3 TADlg - Properties=Scribble1012
3 TADlg - Methods=Scribble1013
2 TDLBox component
3 TDLBox component - Reference=Scribble2100
3 TDLBox - Properties=Scribble2102
3 TDLBox - Methods=Scribble2103
3 TDLBox Events=Scribble2101
2 TGQuit component
3 TGQuit component - Reference=Scribble3100
3 TGQuit - Properties=Scribble3102
3 TGQuit - Events=Scribble3104
2 TLEDArray component
3 TLEDArray component - Reference=Scribble4010
3 TLEDArray - Properties=Scribble4012
3 TLEDArray - Events=Scribble4014
2 TMasMeter component
3 TMasMeter component - Reference=Scribble5010
3 TMasMeter - Properties=Scribble5012
2 TMasPlayer component
3 TMasPlayer component - Reference=Scribble6010
3 TMasPlayer - Properties=Scribble6012
3 TMasPlayer - Methods=Scribble6013
2 TMBox component
3 TMBox component - Reference=Scribble7010
3 TMBox - Properties=Scribble7012
3 TMBox - Methods=Scribble7013
2 TMDate component
3 TMDate component - Reference=Scribble8010
3 TMDate - Properties=Scribble8012
2 TMGauge component
3 TMGauge component - Reference=Scribble9100
3 TMGauge - Properties=Scribble9102
3 TMGauge - Methods=Scribble9103
2 TMSearch component
3 TMSearch component - Reference=Scribble10010
3 TMSearch - Properties=Scribble10012
3 TMSearch - Methods=Scribble10013
2 TPCar component
3 TPCar component - Reference=Scribble11100
3 TPCar - Properties=Scribble11102
2 TStepper component
3 TStepper component - Reference=Scribble12100
3 TStepper - Properties=Scribble12102
3 TStepper - Events=Scribble12104
2 TPassOverBtn component
3 TPassOverBtn component - Reference=Scribble14010
3 TPassOverBtn - Properties=Scribble14012
2 TDriveScan component
3 TDriveScan component - Reference=Scribble15100
3 TDriveScan - Properties=Scribble15102
3 TDriveScan - Methods=Scribble15103
3 TDriveScan - Events=Scribble15104
2 TWKey component
3 TWKey component - Reference=Scribble16010
3 TWKey - Properties=Scribble16012
3 TWKey - Methods=Scribble16013
2 TPushBtn component
3 TPushBtn component - Reference=Scribble18010
3 TPushBtn - Properties=Scribble18012
3 TPushBtn - Methods=Scribble18013
3 TPushBtn - Events=Scribble18014
2 TURLLabel component
3 TURLLabel component - Reference=Scribble20010
3 TURLLabel - Properties=Scribble20020
3 TURLLabel - Methods=Scribble20030
2 TRegistDays component
3 TRegistDays component - Reference=Scribble20070
3 TRegistDays - Properties=Scribble20090
3 TRegistDays - Methods=Scribble20100
2 TRegistTimes component
3 TRegistTimes component - Reference=Scribble20210
3 TRegistTimes - Properties=Scribble20230
3 TRegistTimes - Methods=Scribble20240
2 TExecApp component
3 TExecApp component - Reference=Scribble21100
3 TExecApp - Properties=Scribble21102
3 TExecApp - Methods=Scribble21103
2 TmLED component
3 TmLED component - Reference=Scribble21210
3 TmLED - Properties=Scribble21220
3 TmLED - Methods=Scribble21230
2 TToggleSwitch component
3 TToggleSwitch component - Reference=Scribble21420
3 TToggleSwitch - Properties=Scribble21430
3 TToggleSwitch - Methods=Scribble21440
3 TToggleSwitch - Events=Scribble21450
2 THPCounter component
3 THPCounter component - Reference=Scribble21610
3 THPCounter - Methods=Scribble21620
2 TRText component
3 TRText component - Reference=Scribble21710
3 TRText - Properties=Scribble21720
3 TRText - Methods=Scribble21730
2 THLLabel component
3 THLLabel component - Reference=Scribble21810
3 THLLabel - Properties=Scribble21820
3 THLLabel - Events=Scribble21830
2 TTimePick component
3 TTimePick component - Reference=Scribble21920
3 TTimePick - Properties=Scribble21930
3 TTimePick - Events=Scribble21940
2 TmWImage component
3 TmWImage component - Reference=Scribble22010
3 TmWImage- Properties=Scribble22020
3 TmWImage- Methods=Scribble22030
2 TmShortcut component
3 TmShortcut component - Reference=Scribble22110
3 TmShortcut - Properties=Scribble22120
3 TmShortcut - Methods=Scribble22130
2 TmTagProducer component
3 TmTagProducer component - Reference=Scribble22310
3 TmTagProducer - Properties=Scribble22320
3 TmTagProducer - Methods=Scribble22330
:INCLUDE delphi5.ohc
:INCLUDE delphi5.ohi
:INCLUDE delphi5.ohl
;OH :LINK DEL5VCL.HLP

